ActsPixelClusterizationAlg                                        INFO Clusterization statistics
|----------|------------|
| RDOs     |    3423993 |
| Clusters |    1165578 |
|----------|------------|
ActsStripClusterizationAlg                                        INFO Clusterization statistics
|----------|------------|
| RDOs     |    1345365 |
| Clusters |    1081478 |
|----------|------------|
ActsPixelClusterPreparationAlg                                    INFO Data Prep statistics
|---------|------------|
| Inputs  |    1165578 |
| Outputs |    1165578 |
|---------|------------|
ActsStripClusterPreparationAlg                                    INFO Data Prep statistics
|---------|------------|
| Inputs  |    1081478 |
| Outputs |    1081478 |
|---------|------------|
ActsPixelSpacePointFormationAlg                                   INFO Space Point Formation statistics
|--------------|------------|
| Clusters     |    1165578 |
| Space Points |    1165578 |
|--------------|------------|
ActsStripSpacePointFormationAlg                                   INFO Space Point Formation statistics
|----------------------|------------|
| Clusters             |    1081478 |
| Space Points         |     325456 |
| Overlap Space Points |      94491 |
|----------------------|------------|
ActsPixelSpacePointPreparationAlg                                 INFO Data Prep statistics
|---------|------------|
| Inputs  |    1165578 |
| Outputs |    1165578 |
|---------|------------|
ActsStripSpacePointPreparationAlg                                 INFO Data Prep statistics
|---------|------------|
| Inputs  |     325456 |
| Outputs |     325456 |
|---------|------------|
ActsStripOverlapSpacePointPreparationAlg                          INFO Data Prep statistics
|---------|------------|
| Inputs  |      94491 |
| Outputs |      94491 |
|---------|------------|
ActsPixelSeedingAlg                                               INFO Seed statistics
|---------------------|------------|
| Spacepoints         |    1165578 |
| Seeds               |     123542 |
| No track parameters |          0 |
|---------------------|------------|
ActsStripSeedingAlg                                               INFO Seed statistics
|---------------------|------------|
| Spacepoints         |     419947 |
| Seeds               |      24791 |
| No track parameters |          0 |
|---------------------|------------|
ActsTrackFindingAlg                                               INFO statistics
|-----------------------------------|------------|------------|------------|
|                           All eta | PPP        | SSS        | ALL        |
|-----------------------------------|------------|------------|------------|
| Input seeds                       |     123542 |      24791 |     148333 |
| No track parameters               |          0 |          0 |          0 |
| Used   seeds                      |      77421 |      14472 |      91893 |
| Cannot find track                 |      63230 |      11384 |      74614 |
| Duplicate seeds                   |      46121 |      10319 |      56440 |
| CKF tracks                        |      14191 |       3088 |      17279 |
| Rejected refined parameters       |          0 |          0 |          0 |
| selected tracks                   |      13634 |       1623 |      15257 |
| Stopped tracks reaching max holes |      61674 |      12936 |      74610 |
| Seeds with more than one branch   |          0 |          0 |          0 |
| Tracks failing second CKF         |        826 |       2019 |       2845 |
| Stopped tracks below pT cut       |       2382 |        467 |       2849 |
| Stopped tracks above max eta      |          0 |          0 |          0 |
|-----------------------------------|------------|------------|------------|
ActsTrackFindingAlg                                               INFO Ratios
|------------------------------------------|------------|------------|------------|
|                                          | PPP        | SSS        | ALL        |
|------------------------------------------|------------|------------|------------|
| failed / seeds                           |    0.51181 |   0.459199 |   0.503017 |
| duplication / seeds                      |   0.373322 |    0.41624 |   0.380495 |
| Rejected refined params / seeds          |          0 |          0 |          0 |
| selected / CKF tracks                    |    0.96075 |   0.525583 |   0.882979 |
| selected tracks / used seeds             |   0.176102 |   0.112148 |    0.16603 |
| branched tracks / used seeds             |          0 |          0 |          0 |
| no 2nd CKF / CKF tracks                  |  0.0582059 |   0.653821 |   0.164651 |
|------------------------------------------|------------|------------|------------|
| selected / CKF tracks           0.0- 0.5 |   0.942833 |   0.193906 |   0.770408 |
|                                 0.5- 1.0 |   0.957215 |   0.338809 |    0.79582 |
|                                 1.0- 1.5 |   0.942773 |      0.314 |    0.77402 |
|                                 1.5- 2.0 |   0.917085 |   0.760622 |   0.858037 |
|                                 2.0- 2.5 |   0.992968 |    0.64129 |   0.894432 |
|                                 2.5- 3.0 |   0.962593 |          0 |   0.962593 |
|                                 3.0- 3.5 |   0.962148 |          0 |   0.962148 |
|                                 3.5-+inf |   0.982158 |          0 |   0.982158 |
|------------------------------------------|------------|------------|------------|
ActsLargeRadiusPixelClusterizationAlg                             INFO Clusterization statistics
|----------|------------|
| RDOs     |          0 |
| Clusters |          0 |
|----------|------------|
ActsLargeRadiusStripClusterizationAlg                             INFO Clusterization statistics
|----------|------------|
| RDOs     |          0 |
| Clusters |          0 |
|----------|------------|
ActsLargeRadiusPixelClusterPreparationAlg                         INFO Data Prep statistics
|---------|------------|
| Inputs  |    1165578 |
| Outputs |    1062386 |
|---------|------------|
ActsLargeRadiusStripClusterPreparationAlg                         INFO Data Prep statistics
|---------|------------|
| Inputs  |    1081478 |
| Outputs |    1037997 |
|---------|------------|
ActsLargeRadiusStripSpacePointFormationAlg                        INFO Space Point Formation statistics
|----------------------|------------|
| Clusters             |    1037997 |
| Space Points         |          0 |
| Overlap Space Points |          0 |
|----------------------|------------|
ActsLargeRadiusStripSpacePointPreparationAlg                      INFO Data Prep statistics
|---------|------------|
| Inputs  |     324387 |
| Outputs |     301659 |
|---------|------------|
ActsLargeRadiusStripOv...pSpacePointPreparationAlg                INFO Data Prep statistics
|---------|------------|
| Inputs  |      94032 |
| Outputs |      87762 |
|---------|------------|
ActsLargeRadiusStripSeedingAlg                                    INFO Seed statistics
|---------------------|------------|
| Spacepoints         |     389421 |
| Seeds               |       7636 |
| No track parameters |          0 |
|---------------------|------------|
ActsLargeRadiusTrackFindingAlg                                    INFO statistics
|-----------------------------------|------------|------------|
|                           All eta | SSS        | ALL        |
|-----------------------------------|------------|------------|
| Input seeds                       |       7636 |       7636 |
| No track parameters               |          0 |          0 |
| Used   seeds                      |       7611 |       7611 |
| Cannot find track                 |       7411 |       7411 |
| Duplicate seeds                   |         25 |         25 |
| CKF tracks                        |        200 |        200 |
| Rejected refined parameters       |          0 |          0 |
| selected tracks                   |         29 |         29 |
| Stopped tracks reaching max holes |       6063 |       6063 |
| Seeds with more than one branch   |          0 |          0 |
| Tracks failing second CKF         |        199 |        199 |
| Stopped tracks below pT cut       |       1547 |       1547 |
| Stopped tracks above max eta      |          0 |          0 |
|-----------------------------------|------------|------------|
ActsLargeRadiusTrackFindingAlg                                    INFO Ratios
|------------------------------------------|------------|------------|
|                                          | SSS        | ALL        |
|------------------------------------------|------------|------------|
| failed / seeds                           |   0.970534 |   0.970534 |
| duplication / seeds                      | 0.00327397 | 0.00327397 |
| Rejected refined params / seeds          |          0 |          0 |
| selected / CKF tracks                    |      0.145 |      0.145 |
| selected tracks / used seeds             | 0.00381027 | 0.00381027 |
| branched tracks / used seeds             |          0 |          0 |
| no 2nd CKF / CKF tracks                  |      0.995 |      0.995 |
|------------------------------------------|------------|------------|
| selected / CKF tracks           0.0- 0.5 |   0.150943 |   0.150943 |
|                                 0.5- 1.0 |   0.128205 |   0.128205 |
|                                 1.0- 1.5 |   0.113208 |   0.113208 |
|                                 1.5- 2.0 |      0.375 |      0.375 |
|                                 2.0- 2.5 |  0.0322581 |  0.0322581 |
|                                 2.5- 3.0 |          0 |          0 |
|                                 3.0- 3.5 |          0 |          0 |
|                                 3.5-+inf |          0 |          0 |
|------------------------------------------|------------|------------|
ActsConversionPixelClusterizationAlg                              INFO Clusterization statistics
|----------|------------|
| RDOs     |          0 |
| Clusters |          0 |
|----------|------------|
ActsConversionStripClusterizationAlg                              INFO Clusterization statistics
|----------|------------|
| RDOs     |          0 |
| Clusters |          0 |
|----------|------------|
ActsConversionPixelClusterPreparationAlg                          INFO Data Prep statistics
|---------|------------|
| Inputs  |      30471 |
| Outputs |      27096 |
|---------|------------|
ActsConversionStripClusterPreparationAlg                          INFO Data Prep statistics
|---------|------------|
| Inputs  |      16420 |
| Outputs |      15440 |
|---------|------------|
ActsConversionStripSpacePointFormationAlg                         INFO Space Point Formation statistics
|----------------------|------------|
| Clusters             |      15440 |
| Space Points         |          0 |
| Overlap Space Points |          0 |
|----------------------|------------|
ActsConversionStripSpacePointPreparationAlg                       INFO Data Prep statistics
|---------|------------|
| Inputs  |       4977 |
| Outputs |       4460 |
|---------|------------|
ActsConversionStripSeedingAlg                                     INFO Seed statistics
|---------------------|------------|
| Spacepoints         |       4460 |
| Seeds               |         34 |
| No track parameters |          0 |
|---------------------|------------|
ActsConversionTrackFindingAlg                                     INFO statistics
|-----------------------------------|------------|------------|
|                           All eta | SSS        | ALL        |
|-----------------------------------|------------|------------|
| Input seeds                       |         34 |         34 |
| No track parameters               |          0 |          0 |
| Used   seeds                      |         34 |         34 |
| Cannot find track                 |         34 |         34 |
| Duplicate seeds                   |          0 |          0 |
| CKF tracks                        |          0 |          0 |
| Rejected refined parameters       |          0 |          0 |
| selected tracks                   |          0 |          0 |
| Stopped tracks reaching max holes |         28 |         28 |
| Seeds with more than one branch   |          0 |          0 |
| Tracks failing second CKF         |          0 |          0 |
| Stopped tracks below pT cut       |          6 |          6 |
| Stopped tracks above max eta      |          0 |          0 |
|-----------------------------------|------------|------------|
ActsConversionTrackFindingAlg                                     INFO Ratios
|------------------------------------------|------------|------------|
|                                          | SSS        | ALL        |
|------------------------------------------|------------|------------|
| failed / seeds                           |          1 |          1 |
| duplication / seeds                      |          0 |          0 |
| Rejected refined params / seeds          |          0 |          0 |
| selected / CKF tracks                    |          0 |          0 |
| selected tracks / used seeds             |          0 |          0 |
| branched tracks / used seeds             |          0 |          0 |
| no 2nd CKF / CKF tracks                  |          0 |          0 |
|------------------------------------------|------------|------------|
| selected / CKF tracks           0.0- 0.5 |          0 |          0 |
|                                 0.5- 1.0 |          0 |          0 |
|                                 1.0- 1.5 |          0 |          0 |
|                                 1.5- 2.0 |          0 |          0 |
|                                 2.0- 2.5 |          0 |          0 |
|                                 2.5- 3.0 |          0 |          0 |
|                                 3.0- 3.5 |          0 |          0 |
|                                 3.5-+inf |          0 |          0 |
|------------------------------------------|------------|------------|
ActsLowPtPixelClusterizationAlg                                   INFO Clusterization statistics
|----------|------------|
| RDOs     |          0 |
| Clusters |          0 |
|----------|------------|
ActsLowPtStripClusterizationAlg                                   INFO Clusterization statistics
|----------|------------|
| RDOs     |          0 |
| Clusters |          0 |
|----------|------------|
ActsLowPtPixelClusterPreparationAlg                               INFO Data Prep statistics
|---------|------------|
| Inputs  |    1165578 |
| Outputs |    1062380 |
|---------|------------|
ActsLowPtStripClusterPreparationAlg                               INFO Data Prep statistics
|---------|------------|
| Inputs  |    1081478 |
| Outputs |    1037772 |
|---------|------------|
ActsLowPtPixelSpacePointFormationAlg                              INFO Space Point Formation statistics
|--------------|------------|
| Clusters     |    1062380 |
| Space Points |          0 |
|--------------|------------|
ActsLowPtStripSpacePointFormationAlg                              INFO Space Point Formation statistics
|----------------------|------------|
| Clusters             |    1037772 |
| Space Points         |          0 |
| Overlap Space Points |          0 |
|----------------------|------------|
ActsLowPtPixelSpacePointPreparationAlg                            INFO Data Prep statistics
|---------|------------|
| Inputs  |    1165561 |
| Outputs |    1062380 |
|---------|------------|
ActsLowPtStripSpacePointPreparationAlg                            INFO Data Prep statistics
|---------|------------|
| Inputs  |     324383 |
| Outputs |     301530 |
|---------|------------|
ActsLowPtStripOverlapSpacePointPreparationAlg                     INFO Data Prep statistics
|---------|------------|
| Inputs  |      94029 |
| Outputs |      87727 |
|---------|------------|
ActsLowPtPixelSeedingAlg                                          INFO Seed statistics
|---------------------|------------|
| Spacepoints         |    1062380 |
| Seeds               |      46418 |
| No track parameters |          0 |
|---------------------|------------|
ActsLowPtStripSeedingAlg                                          INFO Seed statistics
|---------------------|------------|
| Spacepoints         |     389257 |
| Seeds               |       7516 |
| No track parameters |          0 |
|---------------------|------------|
ActsLowPtTrackFindingAlg                                          INFO statistics
|-----------------------------------|------------|------------|------------|
|                           All eta | PPP        | SSS        | ALL        |
|-----------------------------------|------------|------------|------------|
| Input seeds                       |      46418 |       7516 |      53934 |
| No track parameters               |          0 |          0 |          0 |
| Used   seeds                      |      45494 |       7060 |      52554 |
| Cannot find track                 |      44682 |       6297 |      50979 |
| Duplicate seeds                   |        924 |        456 |       1380 |
| CKF tracks                        |        812 |        763 |       1575 |
| Rejected refined parameters       |          0 |          0 |          0 |
| selected tracks                   |        641 |        182 |        823 |
| Stopped tracks reaching max holes |      44395 |       6939 |      51334 |
| Seeds with more than one branch   |          0 |          0 |          0 |
| Tracks failing second CKF         |        152 |        681 |        833 |
| Stopped tracks below pT cut       |        439 |         39 |        478 |
| Stopped tracks above max eta      |          0 |          0 |          0 |
|-----------------------------------|------------|------------|------------|
ActsLowPtTrackFindingAlg                                          INFO Ratios
|------------------------------------------|------------|------------|------------|
|                                          | PPP        | SSS        | ALL        |
|------------------------------------------|------------|------------|------------|
| failed / seeds                           |   0.962601 |   0.837813 |   0.945211 |
| duplication / seeds                      |  0.0199061 |  0.0606706 |  0.0255868 |
| Rejected refined params / seeds          |          0 |          0 |          0 |
| selected / CKF tracks                    |   0.789409 |   0.238532 |    0.52254 |
| selected tracks / used seeds             |  0.0140898 |   0.025779 |  0.0156601 |
| branched tracks / used seeds             |          0 |          0 |          0 |
| no 2nd CKF / CKF tracks                  |   0.187192 |   0.892529 |   0.528889 |
|------------------------------------------|------------|------------|------------|
| selected / CKF tracks           0.0- 0.5 |    0.98913 |          0 |   0.466667 |
|                                 0.5- 1.0 |          1 |   0.019802 |   0.473404 |
|                                 1.0- 1.5 |   0.992481 |  0.0992366 |   0.549242 |
|                                 1.5- 2.0 |   0.987179 |   0.617188 |   0.820423 |
|                                 2.0- 2.5 |   0.555556 |  0.0523256 |  0.0773481 |
|                                 2.5- 3.0 |  0.0684932 |          0 |  0.0684932 |
|                                 3.0- 3.5 |     0.0625 |          0 |     0.0625 |
|                                 3.5-+inf |   0.214286 |          0 |   0.214286 |
|------------------------------------------|------------|------------|------------|
